[
  {
    "Functions": [
      {
        "Features": [],
        "Id": "LogApp",
        "Name": "Log Application",
        "Description": "Informasi success/error log aplikasi"
      },
      {
        "Features": [],
        "Id": "LogSync",
        "Name": "Log Synchronization",
        "Description": "Informasi success/error log sinkronisasi"
      },
      {
        "Features": [],
        "Id": "MasterConfig",
        "Name": "Master Data Config",
        "Description": "Master Data Config"
      },
      {
        "Features": [],
        "Id": "MasterUser",
        "Name": "Master Data User",
        "Description": "Master Data User"
      },
      {
        "Features": [
          {
            "Id": "Delete",
            "Name": "Delete",
            "Description": "Function to Delete"
          },
          {
            "Id": "DownloadCSV",
            "Name": "Download CSV",
            "Description": "Function to Download CSV"
          },
          {
            "Id": "DownloadOriginal",
            "Name": "Download Original",
            "Description": "Function to Download Original"
          },
          {
            "Id": "DownloadReport",
            "Name": "Download Report",
            "Description": "Function to Download Report"
          },
          {
            "Id": "Save",
            "Name": "Save",
            "Description": "Function to Save"
          },
          {
            "Id": "UploadApprovalStatus",
            "Name": "Upload Approval Status",
            "Description": "Function to Upload Approval Status"
          },
          {
            "Id": "UploadTaxInvoice",
            "Name": "Upload Tax Invoice",
            "Description": "Function to Upload Tax Invoice"
          },
          {
            "Id": "UploadTransitoryStatus",
            "Name": "Upload Transitory Status",
            "Description": "Function to Upload Transitory Status"
          },
          {
            "Id": "UploadTaxInvoicePIB",
            "Name": "Upload Efaktur File PIB",
            "Description": "Function to Upload Efaktur File PIB"
          },
          {
            "Id": "UploadAdjustmentMasaPajak",
            "Name": "Upload Adjustment Masa Pajak",
            "Description": "Function to Upload Adjustment Masa Pajak"
          },
          {
            "Id": "SyncElvisVatin",
            "Name": "Sync Elvis to Vat In",
            "Description": "Function to Sync Elvis to Vat In"
          }
        ],
        "Id": "VATIn",
        "Name": "VAT In Dashboard",
        "Description": "Dashboard untuk VAT In"
      },
      {
        "Features": [
          {
            "Id": "Save",
            "Name": "Save",
            "Description": "Function to Save"
          }
        ],
        "Id": "VATInBarcodeFirstReceiver",
        "Name": "VAT In Barcode First Receiver",
        "Description": "Input VAT In By Scan"
      },
      {
        "Features": [],
        "Id": "VATInBarcodeSecondReceiver",
        "Name": "VAT In Barcode Second Receiver",
        "Description": "View Faktur Detail By Scan"
      },
      {
        "Features": [
          {
            "Id": "Save",
            "Name": "Save",
            "Description": "Function to Save"
          },
          {
            "Id": "SaveAndRepeat",
            "Name": "Save and repeat",
            "Description": "Function to Save and repeat"
          }
        ],
        "Id": "VATInManualInput",
        "Name": "VAT In Manual Input",
        "Description": "Input VAT In Non eFaktur"
      },
      {
        "Features": [
          {
            "Id": "DownloadCSV",
            "Name": "Download CSV",
            "Description": "Function to Download CSV"
          },
          {
            "Id": "DownloadOriginal",
            "Name": "Download Original",
            "Description": "Function to Download Original"
          },
          {
            "Id": "DownloadPDF",
            "Name": "Download PDF",
            "Description": "Function to Download PDF"
          },
          {
            "Id": "DownloadReport",
            "Name": "Download Report",
            "Description": "Function to Download Report"
          },
          {
            "Id": "Print",
            "Name": "Print",
            "Description": "Function to Print"
          },
          {
            "Id": "UploadApprovalStatus",
            "Name": "Upload Approval Status",
            "Description": "Function to Upload Approval Status"
          },
          {
            "Id": "UploadTaxInvoice",
            "Name": "Upload Tax Invoice",
            "Description": "Function to Upload Tax Invoice"
          },
          {
            "Id": "UploadTaxDataMotorVehicle",
            "Name": "Upload Tax Data Motor Vehicle",
            "Description": "Function to Upload Tax Data Motor Vehicle"
          },
          {
            "Id": "Delete",
            "Name": "Delete",
            "Description": "Function to Delete"
          },
          {
            "Id": "SyncElvisVATOut",
            "Name": "Sync Elvis to Vat Out",
            "Description": "Function to Sync Elvis to Vat Out"
          }
        ],
        "Id": "VATOut",
        "Name": "VAT Out Dashboard",
        "Description": "Dashboard untuk VAT Out"
      },
      {
        "Features": [
          {
            "Id": "DownloadCSV",
            "Name": "Download CSV",
            "Description": "Function to Download CSV"
          },
          {
            "Id": "DownloadOriginal",
            "Name": "Download Original",
            "Description": "Function to Download Original"
          },
          {
            "Id": "DownloadReport",
            "Name": "Download Report",
            "Description": "Function to Download Report"
          },
          {
            "Id": "DownloadPDFOriginal",
            "Name": "Download PDF Original",
            "Description": "Function to Download PDF Original"
          },
          {
            "Id": "DownloadPDFTTD",
            "Name": "Download PDF TTD",
            "Description": "Function to Download PDF TTD"
          },
          {
            "Id": "DownloadPDFDGT",
            "Name": "Download PDF DGT",
            "Description": "Function to Upload Approval Status"
          },
          {
            "Id": "UploadApprovalStatus",
            "Name": "Upload Approval Status",
            "Description": "Function to Upload Approval Status"
          },
          {
            "Id": "UploadTaxInvoice",
            "Name": "Upload Tax Invoice",
            "Description": "Function to Upload Tax Invoice"
          }
        ],
        "Id": "VATOutSalesReturn",
        "Name": "VAT Out Sales Return Dashboard",
        "Description": "Dashboard untuk VAT Out Sales Return"
      },
      {
        "Features": [
          {
            "Id": "PrintPDF",
            "Name": "Print PDF",
            "Description": "Function to Print PDF"
          },
          {
            "Id": "Delete",
            "Name": "Delete",
            "Description": "Function to Delete"
          },
          {
            "Id": "DownloadESPT",
            "Name": "Download ESPT",
            "Description": "Function to Download ESPT"
          },
          {
            "Id": "DownloadOriginal",
            "Name": "Download Original",
            "Description": "Function to Download Original"
          },
          {
            "Id": "DownloadPDF",
            "Name": "Download PDF",
            "Description": "Function to Download PDF"
          },
          {
            "Id": "DownloadReport",
            "Name": "Download Report",
            "Description": "Function to Download Report"
          },
          {
            "Id": "UploadApprovalStatus",
            "Name": "Upload Approval Status",
            "Description": "Function to Upload Approval Status"
          },
          {
            "Id": "UploadWHTFile",
            "Name": "Upload Withholding File",
            "Description": "Function to Upload Withholding File"
          },
          {
            "Id": "SyncElvisWHT",
            "Name": "Sync Elvis To Withholding",
            "Description": "Function to Sync Elvis To Withholding"
          }
        ],
        "Id": "WHT",
        "Name": "Withholding Dashboard",
        "Description": "Dashboard untuk Withholding"
      },
      {
        "Features": [
          {
            "Id": "DownloadOriginal",
            "Name": "Download Original",
            "Description": "Function to Download Original"
          },
          {
            "Id": "UploadReport",
            "Name": "Upload Report Payment Summary Data",
            "Description": "Function to Upload Report Payment Summary Data"
          }
        ],
        "Id": "TaxReport",
        "Name": "Tax Report",
        "Description": "Dashboard untuk Summary Tax Report"
      }
    ],
    "Id": "eFaktur-ADMIN",
    "Name": "Administrator",
    "Description": "Administrator"
  },
  {
    "Functions": [
      {
        "Features": [],
        "Id": "LogApp",
        "Name": "Log Application",
        "Description": "Informasi success/error log aplikasi"
      },
      {
        "Features": [],
        "Id": "LogSync",
        "Name": "Log Synchronization",
        "Description": "Informasi success/error log sinkronisasi"
      },
      {
        "Features": [],
        "Id": "VATIn",
        "Name": "VAT In Dashboard",
        "Description": "Dashboard untuk VAT In"
      },
      {
        "Features": [
          {
            "Id": "DownloadOriginal",
            "Name": "Download Original",
            "Description": "Function to Download Original"
          },
          {
            "Id": "DownloadPDF",
            "Name": "Download PDF",
            "Description": "Function to Download PDF"
          },
          {
            "Id": "DownloadReport",
            "Name": "Download Report",
            "Description": "Function to Download Report"
          },
          {
            "Id": "Print",
            "Name": "Print",
            "Description": "Function to Print"
          }
        ],
        "Id": "VATOut",
        "Name": "VAT Out Dashboard",
        "Description": "Dashboard untuk VAT Out"
      },
      {
        "Features": [
          {
            "Id": "DownloadOriginal",
            "Name": "Download Original",
            "Description": "Function to Download Original"
          },
          {
            "Id": "DownloadReport",
            "Name": "Download Report",
            "Description": "Function to Download Report"
          },
          {
            "Id": "DownloadPDFOriginal",
            "Name": "Download PDF Original",
            "Description": "Function to Download PDF Original"
          },
          {
            "Id": "DownloadPDFTTD",
            "Name": "Download PDF TTD",
            "Description": "Function to Download PDF TTD"
          },
          {
            "Id": "DownloadPDFDGT",
            "Name": "Download PDF DGT",
            "Description": "Function to Upload Approval Status"
          }
        ],
        "Id": "VATOutSalesReturn",
        "Name": "VAT Out Sales Return Dashboard",
        "Description": "Dashboard untuk VAT Out Sales Return"
      }
    ],
    "Id": "eFaktur-PIC_LEXUS_AR",
    "Name": "PIC Lexus AR",
    "Description": "PIC Lexus AR"
  },
  {
    "Functions": [
      {
        "Features": [],
        "Id": "LogApp",
        "Name": "Log Application",
        "Description": "Informasi success/error log aplikasi"
      },
      {
        "Features": [],
        "Id": "LogSync",
        "Name": "Log Synchronization",
        "Description": "Informasi success/error log sinkronisasi"
      },
      {
        "Features": [
          {
            "Id": "Delete",
            "Name": "Delete",
            "Description": "Function to Delete"
          }
        ],
        "Id": "VATIn",
        "Name": "VAT In Dashboard",
        "Description": "Dashboard untuk VAT In"
      },
      {
        "Features": [
          {
            "Id": "Save",
            "Name": "Save",
            "Description": "Function to Save"
          }
        ],
        "Id": "VATInBarcodeFirstReceiver",
        "Name": "VAT In Barcode First Receiver",
        "Description": "Input VAT In By Scan"
      },
      {
        "Features": [],
        "Id": "VATInBarcodeSecondReceiver",
        "Name": "VAT In Barcode Second Receiver",
        "Description": "View Faktur Detail By Scan"
      },
      {
        "Features": [
          {
            "Id": "Save",
            "Name": "Save",
            "Description": "Function to Save"
          },
          {
            "Id": "SaveAndRepeat",
            "Name": "Save and repeat",
            "Description": "Function to Save and repeat"
          }
        ],
        "Id": "VATInManualInput",
        "Name": "VAT In Manual Input",
        "Description": "Input VAT In Non eFaktur"
      }
    ],
    "Id": "eFaktur-USER_ADMIN_VAT_IN",
    "Name": "User Admin VAT In",
    "Description": "Admin yang bertanggung jawab atas VAT In"
  },
  {
    "Functions": [
      {
        "Features": [],
        "Id": "LogApp",
        "Name": "Log Application",
        "Description": "Informasi success/error log aplikasi"
      },
      {
        "Features": [],
        "Id": "LogSync",
        "Name": "Log Synchronization",
        "Description": "Informasi success/error log sinkronisasi"
      },
      {
        "Features": [
          {
            "Id": "Delete",
            "Name": "Delete",
            "Description": "Function to Delete"
          }
        ],
        "Id": "VATIn",
        "Name": "VAT In Dashboard",
        "Description": "Dashboard untuk VAT In"
      },
      {
        "Features": [
          {
            "Id": "Save",
            "Name": "Save",
            "Description": "Function to Save"
          }
        ],
        "Id": "VATInBarcodeFirstReceiver",
        "Name": "VAT In Barcode First Receiver",
        "Description": "Input VAT In By Scan"
      },
      {
        "Features": [],
        "Id": "VATInBarcodeSecondReceiver",
        "Name": "VAT In Barcode Second Receiver",
        "Description": "View Faktur Detail By Scan"
      },
      {
        "Features": [
          {
            "Id": "Save",
            "Name": "Save",
            "Description": "Function to Save"
          },
          {
            "Id": "SaveAndRepeat",
            "Name": "Save and repeat",
            "Description": "Function to Save and repeat"
          }
        ],
        "Id": "VATInManualInput",
        "Name": "VAT In Manual Input",
        "Description": "Input VAT In Non eFaktur"
      }
    ],
    "Id": "eFaktur-TAX_VAT_IN",
    "Name": "User Admin VAT In",
    "Description": "Admin yang bertanggung jawab atas VAT In"
  },
  {
    "Functions": [
      {
        "Features": [],
        "Id": "LogApp",
        "Name": "Log Application",
        "Description": "Informasi success/error log aplikasi"
      },
      {
        "Features": [],
        "Id": "LogSync",
        "Name": "Log Synchronization",
        "Description": "Informasi success/error log sinkronisasi"
      },
      {
        "Features": [
          {
            "Id": "Delete",
            "Name": "Delete",
            "Description": "Function to Delete"
          },
          {
            "Id": "DownloadReport",
            "Name": "Download Report",
            "Description": "Function to Download Report"
          }
        ],
        "Id": "WHT",
        "Name": "Withholding Dashboard",
        "Description": "Dashboard untuk Withholding"
      }
    ],
    "Id": "eFaktur-USER_ADMIN_WHT",
    "Name": "User Admin Withholding",
    "Description": "Admin yang bertanggung jawab atas Withholding"
  },
  {
    "Functions": [
      {
        "Features": [],
        "Id": "LogApp",
        "Name": "Log Application",
        "Description": "Informasi success/error log aplikasi"
      },
      {
        "Features": [],
        "Id": "LogSync",
        "Name": "Log Synchronization",
        "Description": "Informasi success/error log sinkronisasi"
      },
      {
        "Features": [
          {
            "Id": "Delete",
            "Name": "Delete",
            "Description": "Function to Delete"
          },
          {
            "Id": "DownloadCSV",
            "Name": "Download CSV",
            "Description": "Function to Download CSV"
          },
          {
            "Id": "DownloadOriginal",
            "Name": "Download Original",
            "Description": "Function to Download Original"
          },
          {
            "Id": "DownloadReport",
            "Name": "Download Report",
            "Description": "Function to Download Report"
          },
          {
            "Id": "Save",
            "Name": "Save",
            "Description": "Function to Save"
          },
          {
            "Id": "UploadApprovalStatus",
            "Name": "Upload Approval Status",
            "Description": "Function to Upload Approval Status"
          },
          {
            "Id": "UploadTaxInvoice",
            "Name": "Upload Tax Invoice",
            "Description": "Function to Upload Tax Invoice"
          },
          {
            "Id": "UploadTransitoryStatus",
            "Name": "Upload Transitory Status",
            "Description": "Function to Upload Transitory Status"
          },
          {
            "Id": "UploadTaxInvoicePIB",
            "Name": "Upload Efaktur File PIB",
            "Description": "Function to Upload Efaktur File PIB"
          },
          {
            "Id": "UploadAdjustmentMasaPajak",
            "Name": "Upload Adjustment Masa Pajak",
            "Description": "Function to Upload Adjustment Masa Pajak"
          },
          {
            "Id": "SyncElvisVatin",
            "Name": "Sync Elvis to Vat In",
            "Description": "Function to Sync Elvis to Vat In"
          }
        ],
        "Id": "VATIn",
        "Name": "VAT In Dashboard",
        "Description": "Dashboard untuk VAT In"
      },
      {
        "Features": [
          {
            "Id": "Save",
            "Name": "Save",
            "Description": "Function to Save"
          }
        ],
        "Id": "VATInBarcodeFirstReceiver",
        "Name": "VAT In Barcode First Receiver",
        "Description": "Input VAT In By Scan"
      },
      {
        "Features": [],
        "Id": "VATInBarcodeSecondReceiver",
        "Name": "VAT In Barcode Second Receiver",
        "Description": "View Faktur Detail By Scan"
      },
      {
        "Features": [
          {
            "Id": "Save",
            "Name": "Save",
            "Description": "Function to Save"
          },
          {
            "Id": "SaveAndRepeat",
            "Name": "Save and repeat",
            "Description": "Function to Save and repeat"
          }
        ],
        "Id": "VATInManualInput",
        "Name": "VAT In Manual Input",
        "Description": "Input VAT In Non eFaktur"
      },
      {
        "Features": [
          {
            "Id": "DownloadCSV",
            "Name": "Download CSV",
            "Description": "Function to Download CSV"
          },
          {
            "Id": "DownloadOriginal",
            "Name": "Download Original",
            "Description": "Function to Download Original"
          },
          {
            "Id": "DownloadPDF",
            "Name": "Download PDF",
            "Description": "Function to Download PDF"
          },
          {
            "Id": "DownloadReport",
            "Name": "Download Report",
            "Description": "Function to Download Report"
          },
          {
            "Id": "Print",
            "Name": "Print",
            "Description": "Function to Print"
          },
          {
            "Id": "UploadApprovalStatus",
            "Name": "Upload Approval Status",
            "Description": "Function to Upload Approval Status"
          },
          {
            "Id": "UploadTaxInvoice",
            "Name": "Upload Tax Invoice",
            "Description": "Function to Upload Tax Invoice"
          }
        ],
        "Id": "VATOut",
        "Name": "VAT Out Dashboard",
        "Description": "Dashboard untuk VAT Out"
      },
      {
        "Features": [
          {
            "Id": "DownloadCSV",
            "Name": "Download CSV",
            "Description": "Function to Download CSV"
          },
          {
            "Id": "DownloadOriginal",
            "Name": "Download Original",
            "Description": "Function to Download Original"
          },
          {
            "Id": "DownloadReport",
            "Name": "Download Report",
            "Description": "Function to Download Report"
          },
          {
            "Id": "DownloadPDFOriginal",
            "Name": "Download PDF Original",
            "Description": "Function to Download PDF Original"
          },
          {
            "Id": "DownloadPDFTTD",
            "Name": "Download PDF TTD",
            "Description": "Function to Download PDF TTD"
          },
          {
            "Id": "DownloadPDFDGT",
            "Name": "Download PDF DGT",
            "Description": "Function to Upload Approval Status"
          },
          {
            "Id": "UploadApprovalStatus",
            "Name": "Upload Approval Status",
            "Description": "Function to Upload Approval Status"
          },
          {
            "Id": "UploadTaxInvoice",
            "Name": "Upload Tax Invoice",
            "Description": "Function to Upload Tax Invoice"
          }
        ],
        "Id": "VATOutSalesReturn",
        "Name": "VAT Out Sales Return Dashboard",
        "Description": "Dashboard untuk VAT Out Sales Return"
      },
      {
        "Features": [
          {
            "Id": "PrintPDF",
            "Name": "Print PDF",
            "Description": "Function to Print PDF"
          },
          {
            "Id": "Delete",
            "Name": "Delete",
            "Description": "Function to Delete"
          },
          {
            "Id": "DownloadESPT",
            "Name": "Download ESPT",
            "Description": "Function to Download ESPT"
          },
          {
            "Id": "DownloadEbupot",
            "Name": "Download ebupot",
            "Description": "Function to Download eBupot"
          },
          {
            "Id": "DownloadOriginal",
            "Name": "Download Original",
            "Description": "Function to Download Original"
          },
          {
            "Id": "DownloadPDF",
            "Name": "Download PDF",
            "Description": "Function to Download PDF"
          },
          {
            "Id": "DownloadReport",
            "Name": "Download Report",
            "Description": "Function to Download Report"
          },
          {
            "Id": "UploadApprovalStatus",
            "Name": "Upload Approval Status",
            "Description": "Function to Upload Approval Status"
          },
          {
            "Id": "UploadWHTFile",
            "Name": "Upload Withholding File",
            "Description": "Function to Upload Withholding File"
          },
          {
            "Id": "SyncElvisWHT",
            "Name": "Sync Elvis To Withholding",
            "Description": "Function to Sync Elvis To Withholding"
          },
          {
            "Id": "ConverteBupotFile",
            "Name": "Convert eBupot File",
            "Description": "Function to Convert eBupot File"
          },
          {
            "Id": "UploadeBupotFile",
            "Name": "Upload eBupot File",
            "Description": "Function to Upload eBupot File"
          },
          {
            "Id": "UploadeBupotApproval",
            "Name": "Upload eBupot Approval",
            "Description": "Function to Upload eBupot Approval"
          },
          {
            "Id": "UploadeBupotNIK",
            "Name": "Upload eBupot NIK",
            "Description": "Function to Upload eBupot Approval"
          }
        ],
        "Id": "WHT",
        "Name": "Withholding Dashboard",
        "Description": "Dashboard untuk Withholding"
      },
      {
        "Features": [
          {
            "Id": "DownloadOriginal",
            "Name": "Download Original",
            "Description": "Function to Download Original"
          },

          {
            "Id": "UploadReport",
            "Name": "Upload Report Payment Summary Data",
            "Description": "Function to Upload Report Payment Summary Data"
          }
        ],
        "Id": "TaxReport",
        "Name": "Tax Report",
        "Description": "Dashboard untuk Summary Tax Report"
      },
      {
        "Features": [
          {
            "Id": "PrintFacilityPDF",
            "Name": "Print PDF",
            "Description": "Function to Print PDF"
          },
          {
            "Id": "DeleteTaxFacility",
            "Name": "Delete Tax Facility",
            "Description": "Function to Delete Tax Facility"
          },
          {
            "Id": "DownloadPDF",
            "Name": "Download PDF",
            "Description": "Function to Download PDF"
          },
          {
            "Id": "DownloadReport",
            "Name": "Download Report",
            "Description": "Function to Download Report"
          },
          {
            "Id": "UploadApprovalStatus",
            "Name": "Upload Approval Status",
            "Description": "Function to Upload Approval Status"
          },
          {
            "Id": "UploadTaxFacilityData",
            "Name": "Upload Tax Facility Data",
            "Description": "Function to Upload Tax Facility Data"
          },
          {
            "Id": "UploadPDFFileTaxFacility",
            "Name": "Upload PDF File Tax Facility",
            "Description": "Function to Upload PDF File Tax Facility Data"
          },
          {
            "Id": "InputDataTaxFacility",
            "Name": "Input Data Tax Facility",
            "Description": "Function to Input Data Tax Facility"
          }
        ],
        "Id": "RegisterFacility",
        "Name": "Register Facility Dashboard",
        "Description": "Dashboard untuk Register Facility"
      }
    ],
    "Id": "eFaktur-DIVISION_HEAD",
    "Name": "Division Head",
    "Description": "Division Head"
  },
  {
    "Functions": [
      {
        "Features": [],
        "Id": "LogApp",
        "Name": "Log Application",
        "Description": "Informasi success/error log aplikasi"
      },
      {
        "Features": [],
        "Id": "LogSync",
        "Name": "Log Synchronization",
        "Description": "Informasi success/error log sinkronisasi"
      },
      {
        "Features": [
          {
            "Id": "Delete",
            "Name": "Delete",
            "Description": "Function to Delete"
          },
          {
            "Id": "DownloadCSV",
            "Name": "Download CSV",
            "Description": "Function to Download CSV"
          },
          {
            "Id": "DownloadOriginal",
            "Name": "Download Original",
            "Description": "Function to Download Original"
          },
          {
            "Id": "DownloadReport",
            "Name": "Download Report",
            "Description": "Function to Download Report"
          },
          {
            "Id": "UploadApprovalStatus",
            "Name": "Upload Approval Status",
            "Description": "Function to Upload Approval Status"
          },
          {
            "Id": "UploadTaxInvoice",
            "Name": "Upload Tax Invoice",
            "Description": "Function to Upload Tax Invoice"
          },
          {
            "Id": "UploadTransitoryStatus",
            "Name": "Upload Transitory Status",
            "Description": "Function to Upload Transitory Status"
          },
          {
            "Id": "UploadTaxInvoicePIB",
            "Name": "Upload Efaktur File PIB",
            "Description": "Function to Upload Efaktur File PIB"
          },
          {
            "Id": "UploadAdjustmentMasaPajak",
            "Name": "Upload Adjustment Masa Pajak",
            "Description": "Function to Upload Adjustment Masa Pajak"
          },
          {
            "Id": "SyncElvisVatin",
            "Name": "Sync Elvis to Vat In",
            "Description": "Function to Sync Elvis to Vat In"
          }
        ],
        "Id": "VATIn",
        "Name": "VAT In Dashboard",
        "Description": "Dashboard untuk VAT In"
      },
      {
        "Features": [
          {
            "Id": "Save",
            "Name": "Save",
            "Description": "Function to Save"
          },
          {
            "Id": "SaveAndRepeat",
            "Name": "Save and repeat",
            "Description": "Function to Save and repeat"
          }
        ],
        "Id": "VATInManualInput",
        "Name": "VAT In Manual Input",
        "Description": "Input VAT In Non eFaktur"
      },
      {
        "Features": [
          {
            "Id": "Save",
            "Name": "Save",
            "Description": "Function to Save"
          }
        ],
        "Id": "VATInBarcodeFirstReceiver",
        "Name": "VAT In Barcode First Receiver",
        "Description": "Input VAT In By Scan"
      },
      {
        "Features": [],
        "Id": "VATInBarcodeSecondReceiver",
        "Name": "VAT In Barcode Second Receiver",
        "Description": "View Faktur Detail By Scan"
      }
    ],
    "Id": "eFaktur-PIC_TAX_VAT_IN",
    "Name": "PIC Tax VAT In",
    "Description": "PIC yang bertanggung jawab atas VAT In"
  },
  {
    "Functions": [
      {
        "Features": [],
        "Id": "LogApp",
        "Name": "Log Application",
        "Description": "Informasi success/error log aplikasi"
      },
      {
        "Features": [],
        "Id": "LogSync",
        "Name": "Log Synchronization",
        "Description": "Informasi success/error log sinkronisasi"
      },
      {
        "Features": [
          {
            "Id": "DownloadCSV",
            "Name": "Download CSV",
            "Description": "Function to Download CSV"
          },
          {
            "Id": "DownloadOriginal",
            "Name": "Download Original",
            "Description": "Function to Download Original"
          },
          {
            "Id": "DownloadPDF",
            "Name": "Download PDF",
            "Description": "Function to Download PDF"
          },
          {
            "Id": "DownloadReport",
            "Name": "Download Report",
            "Description": "Function to Download Report"
          },
          {
            "Id": "Print",
            "Name": "Print",
            "Description": "Function to Print"
          },
          {
            "Id": "UploadApprovalStatus",
            "Name": "Upload Approval Status",
            "Description": "Function to Upload Approval Status"
          },
          {
            "Id": "UploadTaxInvoice",
            "Name": "Upload Tax Invoice",
            "Description": "Function to Upload Tax Invoice"
          }
        ],
        "Id": "VATOut",
        "Name": "VAT Out Dashboard",
        "Description": "Dashboard untuk VAT Out"
      },
      {
        "Features": [
          {
            "Id": "DownloadCSV",
            "Name": "Download CSV",
            "Description": "Function to Download CSV"
          },
          {
            "Id": "DownloadOriginal",
            "Name": "Download Original",
            "Description": "Function to Download Original"
          },
          {
            "Id": "DownloadReport",
            "Name": "Download Report",
            "Description": "Function to Download Report"
          },
          {
            "Id": "DownloadPDFOriginal",
            "Name": "Download PDF Original",
            "Description": "Function to Download PDF Original"
          },
          {
            "Id": "DownloadPDFTTD",
            "Name": "Download PDF TTD",
            "Description": "Function to Download PDF TTD"
          },
          {
            "Id": "DownloadPDFDGT",
            "Name": "Download PDF DGT",
            "Description": "Function to Upload Approval Status"
          },
          {
            "Id": "UploadApprovalStatus",
            "Name": "Upload Approval Status",
            "Description": "Function to Upload Approval Status"
          },
          {
            "Id": "UploadTaxInvoice",
            "Name": "Upload Tax Invoice",
            "Description": "Function to Upload Tax Invoice"
          }
        ],
        "Id": "VATOutSalesReturn",
        "Name": "VAT Out Sales Return Dashboard",
        "Description": "Dashboard untuk VAT Out Sales Return"
      },
      {
        "Features": [
          {
            "Id": "DownloadReport",
            "Name": "Download Report",
            "Description": "Function to Download Report"
          }
        ],
        "Id": "VATOut",
        "Name": "VAT Out Dashboard",
        "Description": "Dashboard untuk VAT Out"
      },

      {
        "Features": [
          {
            "Id": "DownloadReport",
            "Name": "Download Report",
            "Description": "Function to Download Report"
          },
          {
            "Id": "DownloadPDFOriginal",
            "Name": "Download PDF Original",
            "Description": "Function to Download PDF Original"
          },
          {
            "Id": "DownloadPDFTTD",
            "Name": "Download PDF TTD",
            "Description": "Function to Download PDF TTD"
          },
          {
            "Id": "DownloadPDFDGT",
            "Name": "Download PDF DGT",
            "Description": "Function to Upload Approval Status"
          }
        ],
        "Id": "VATOutSalesReturn",
        "Name": "VAT Out Sales Return Dashboard",
        "Description": "Dashboard untuk VAT Out Sales Return"
      }
    ],
    "Id": "eFaktur-PIC_TAX_VAT_OUT",
    "Name": "PIC Tax VAT Out",
    "Description": "PIC yang bertanggung jawab atas VAT Out"
  },
  {
    "Functions": [
      {
        "Features": [],
        "Id": "LogApp",
        "Name": "Log Application",
        "Description": "Informasi success/error log aplikasi"
      },
      {
        "Features": [],
        "Id": "LogSync",
        "Name": "Log Synchronization",
        "Description": "Informasi success/error log sinkronisasi"
      },
      {
        "Features": [
          {
            "Id": "PrintPDF",
            "Name": "Print PDF",
            "Description": "Function to Print PDF"
          },
          {
            "Id": "Delete",
            "Name": "Delete",
            "Description": "Function to Delete"
          },
          {
            "Id": "DownloadESPT",
            "Name": "Download ESPT",
            "Description": "Function to Download ESPT"
          },
          {
            "Id": "DownloadEbupot",
            "Name": "Download ebupot",
            "Description": "Function to Download eBupot"
          },
          {
            "Id": "DownloadOriginal",
            "Name": "Download Original",
            "Description": "Function to Download Original"
          },
          {
            "Id": "DownloadPDF",
            "Name": "Download PDF",
            "Description": "Function to Download PDF"
          },
          {
            "Id": "DownloadReport",
            "Name": "Download Report",
            "Description": "Function to Download Report"
          },
          {
            "Id": "UploadApprovalStatus",
            "Name": "Upload Approval Status",
            "Description": "Function to Upload Approval Status"
          },
          {
            "Id": "UploadWHTFile",
            "Name": "Upload Withholding File",
            "Description": "Function to Upload Withholding File"
          },
          {
            "Id": "SyncElvisWHT",
            "Name": "Sync Elvis To Withholding",
            "Description": "Function to Sync Elvis To Withholding"
          },
          {
            "Id": "ConverteBupotFile",
            "Name": "Convert eBupot File",
            "Description": "Function to Convert eBupot File"
          },
          {
            "Id": "UploadeBupotFile",
            "Name": "Upload eBupot File",
            "Description": "Function to Upload eBupot File"
          },
          {
            "Id": "UploadeBupotApproval",
            "Name": "Upload eBupot Approval",
            "Description": "Function to Upload eBupot Approval"
          },
          {
            "Id": "UploadeBupotNIK",
            "Name": "Upload eBupot NIK",
            "Description": "Function to Upload eBupot Approval"
          }
        ],
        "Id": "WHT",
        "Name": "Withholding Dashboard",
        "Description": "Dashboard untuk Withholding"
      }
    ],
    "Id": "eFaktur-PIC_TAX_WHT",
    "Name": "PIC Tax Withholding",
    "Description": "PIC yang bertanggung jawab atas Withholding"
  },
  {
    "Functions": [
      {
        "Features": [],
        "Id": "LogApp",
        "Name": "Log Application",
        "Description": "Informasi success/error log aplikasi"
      },
      {
        "Features": [],
        "Id": "LogSync",
        "Name": "Log Synchronization",
        "Description": "Informasi success/error log sinkronisasi"
      },
      {
        "Features": [
          {
            "Id": "DownloadOriginal",
            "Name": "Download Original",
            "Description": "Function to Download Original"
          },
          {
            "Id": "UploadReport",
            "Name": "Upload Report Payment Summary Data",
            "Description": "Function to Upload Report Payment Summary Data"
          }
        ],
        "Id": "TaxReport",
        "Name": "Tax Report",
        "Description": "Dashboard untuk Summary Tax Report"
      }
    ],
    "Id": "eFaktur-PIC_SUMMARY_PAYMENT_AND_REPORTING",
    "Name": "PIC Summary Report",
    "Description": "PIC yang bertanggung jawab atas Summary Report"
  },
  {
    "Functions": [
      {
        "Features": [],
        "Id": "LogApp",
        "Name": "Log Application",
        "Description": "Informasi success/error log aplikasi"
      },
      {
        "Features": [],
        "Id": "LogSync",
        "Name": "Log Synchronization",
        "Description": "Informasi success/error log sinkronisasi"
      },
      {
        "Features": [],
        "Id": "MasterConfig",
        "Name": "Master Data Config",
        "Description": "Master Data Config"
      },
      {
        "Features": [],
        "Id": "MasterUser",
        "Name": "Master Data User",
        "Description": "Master Data User"
      },
      {
        "Features": [
          {
            "Id": "Delete",
            "Name": "Delete",
            "Description": "Function to Delete"
          },
          {
            "Id": "DownloadCSV",
            "Name": "Download CSV",
            "Description": "Function to Download CSV"
          },
          {
            "Id": "DownloadOriginal",
            "Name": "Download Original",
            "Description": "Function to Download Original"
          },
          {
            "Id": "DownloadReport",
            "Name": "Download Report",
            "Description": "Function to Download Report"
          },
          {
            "Id": "UploadApprovalStatus",
            "Name": "Upload Approval Status",
            "Description": "Function to Upload Approval Status"
          },
          {
            "Id": "UploadTaxInvoice",
            "Name": "Upload Tax Invoice",
            "Description": "Function to Upload Tax Invoice"
          },
          {
            "Id": "UploadTransitoryStatus",
            "Name": "Upload Transitory Status",
            "Description": "Function to Upload Transitory Status"
          },
          {
            "Id": "UploadTaxInvoicePIB",
            "Name": "Upload Efaktur File PIB",
            "Description": "Function to Upload Efaktur File PIB"
          },
          {
            "Id": "UploadAdjustmentMasaPajak",
            "Name": "Upload Adjustment Masa Pajak",
            "Description": "Function to Upload Adjustment Masa Pajak"
          },
          {
            "Id": "SyncElvisVatin",
            "Name": "Sync Elvis to Vat In",
            "Description": "Function to Sync Elvis to Vat In"
          }
        ],
        "Id": "VATIn",
        "Name": "VAT In Dashboard",
        "Description": "Dashboard untuk VAT In"
      },
      {
        "Features": [
          {
            "Id": "Save",
            "Name": "Save",
            "Description": "Function to Save"
          }
        ],
        "Id": "VATInBarcodeFirstReceiver",
        "Name": "VAT In Barcode First Receiver",
        "Description": "Input VAT In By Scan"
      },
      {
        "Features": [],
        "Id": "VATInBarcodeSecondReceiver",
        "Name": "VAT In Barcode Second Receiver",
        "Description": "View Faktur Detail By Scan"
      },
      {
        "Features": [
          {
            "Id": "Save",
            "Name": "Save",
            "Description": "Function to Save"
          },
          {
            "Id": "SaveAndRepeat",
            "Name": "Save and repeat",
            "Description": "Function to Save and repeat"
          }
        ],
        "Id": "VATInManualInput",
        "Name": "VAT In Manual Input",
        "Description": "Input VAT In Non eFaktur"
      },
      {
        "Features": [
          {
            "Id": "DownloadCSV",
            "Name": "Download CSV",
            "Description": "Function to Download CSV"
          },
          {
            "Id": "DownloadOriginal",
            "Name": "Download Original",
            "Description": "Function to Download Original"
          },
          {
            "Id": "DownloadPDF",
            "Name": "Download PDF",
            "Description": "Function to Download PDF"
          },
          {
            "Id": "DownloadReport",
            "Name": "Download Report",
            "Description": "Function to Download Report"
          },
          {
            "Id": "Print",
            "Name": "Print",
            "Description": "Function to Print"
          },
          {
            "Id": "UploadApprovalStatus",
            "Name": "Upload Approval Status",
            "Description": "Function to Upload Approval Status"
          },
          {
            "Id": "UploadTaxInvoice",
            "Name": "Upload Tax Invoice",
            "Description": "Function to Upload Tax Invoice"
          }
        ],
        "Id": "VATOut",
        "Name": "VAT Out Dashboard",
        "Description": "Dashboard untuk VAT Out"
      },
      {
        "Features": [
          {
            "Id": "DownloadCSV",
            "Name": "Download CSV",
            "Description": "Function to Download CSV"
          },
          {
            "Id": "DownloadOriginal",
            "Name": "Download Original",
            "Description": "Function to Download Original"
          },
          {
            "Id": "DownloadReport",
            "Name": "Download Report",
            "Description": "Function to Download Report"
          },
          {
            "Id": "DownloadPDFOriginal",
            "Name": "Download PDF Original",
            "Description": "Function to Download PDF Original"
          },
          {
            "Id": "DownloadPDFTTD",
            "Name": "Download PDF TTD",
            "Description": "Function to Download PDF TTD"
          },
          {
            "Id": "DownloadPDFDGT",
            "Name": "Download PDF DGT",
            "Description": "Function to Upload Approval Status"
          },
          {
            "Id": "UploadApprovalStatus",
            "Name": "Upload Approval Status",
            "Description": "Function to Upload Approval Status"
          },
          {
            "Id": "UploadTaxInvoice",
            "Name": "Upload Tax Invoice",
            "Description": "Function to Upload Tax Invoice"
          }
        ],
        "Id": "VATOutSalesReturn",
        "Name": "VAT Out Sales Return Dashboard",
        "Description": "Dashboard untuk VAT Out Sales Return"
      },
      {
        "Features": [
          {
            "Id": "PrintPDF",
            "Name": "Print PDF",
            "Description": "Function to Print PDF"
          },
          {
            "Id": "Delete",
            "Name": "Delete",
            "Description": "Function to Delete"
          },
          {
            "Id": "DownloadESPT",
            "Name": "Download ESPT",
            "Description": "Function to Download ESPT"
          },
          {
            "Id": "DownloadEbupot",
            "Name": "Download ebupot",
            "Description": "Function to Download eBupot"
          },
          {
            "Id": "DownloadOriginal",
            "Name": "Download Original",
            "Description": "Function to Download Original"
          },
          {
            "Id": "DownloadPDF",
            "Name": "Download PDF",
            "Description": "Function to Download PDF"
          },
          {
            "Id": "DownloadReport",
            "Name": "Download Report",
            "Description": "Function to Download Report"
          },
          {
            "Id": "UploadApprovalStatus",
            "Name": "Upload Approval Status",
            "Description": "Function to Upload Approval Status"
          },
          {
            "Id": "UploadWHTFile",
            "Name": "Upload Withholding File",
            "Description": "Function to Upload Withholding File"
          },
          {
            "Id": "SyncElvisWHT",
            "Name": "Sync Elvis To Withholding",
            "Description": "Function to Sync Elvis To Withholding"
          },
          {
            "Id": "ConverteBupotFile",
            "Name": "Convert eBupot File",
            "Description": "Function to Convert eBupot File"
          },
          {
            "Id": "UploadeBupotFile",
            "Name": "Upload eBupot File",
            "Description": "Function to Upload eBupot File"
          },
          {
            "Id": "UploadeBupotApproval",
            "Name": "Upload eBupot Approval",
            "Description": "Function to Upload eBupot Approval"
          },
          {
            "Id": "UploadeBupotNIK",
            "Name": "Upload eBupot NIK",
            "Description": "Function to Upload eBupot Approval"
          }
        ],
        "Id": "WHT",
        "Name": "Withholding Dashboard",
        "Description": "Dashboard untuk Withholding"
      },
      {
        "Features": [
          {
            "Id": "DownloadOriginal",
            "Name": "Download Original",
            "Description": "Function to Download Original"
          },
          {
            "Id": "UploadReport",
            "Name": "Upload Report Payment Summary Data",
            "Description": "Function to Upload Report Payment Summary Data"
          }
        ],
        "Id": "TaxReport",
        "Name": "Tax Report",
        "Description": "Dashboard untuk Summary Tax Report"
      },
      {
        "Features": [
          {
            "Id": "PrintFacilityPDF",
            "Name": "Print PDF",
            "Description": "Function to Print PDF"
          },
          {
            "Id": "DeleteTaxFacility",
            "Name": "Delete Tax Facility",
            "Description": "Function to Delete Tax Facility"
          },
          {
            "Id": "DownloadPDF",
            "Name": "Download PDF",
            "Description": "Function to Download PDF"
          },
          {
            "Id": "DownloadReport",
            "Name": "Download Report",
            "Description": "Function to Download Report"
          },
          {
            "Id": "UploadApprovalStatus",
            "Name": "Upload Approval Status",
            "Description": "Function to Upload Approval Status"
          },
          {
            "Id": "UploadTaxFacilityData",
            "Name": "Upload Tax Facility Data",
            "Description": "Function to Upload Tax Facility Data"
          },
          {
            "Id": "UploadPDFFileTaxFacility",
            "Name": "Upload PDF File Tax Facility",
            "Description": "Function to Upload PDF File Tax Facility Data"
          },
          {
            "Id": "InputDataTaxFacility",
            "Name": "Input Data Tax Facility",
            "Description": "Function to Input Data Tax Facility"
          }
        ],
        "Id": "RegisterFacility",
        "Name": "Register Facility Dashboard",
        "Description": "Dashboard untuk Register Facility"
      }
    ],
    "Id": "eFaktur-ACCOUNTING_HEAD",
    "Name": "Accounting Head",
    "Description": "Accounting Head"
  },
  {
    "Functions": [
      {
        "Features": [],
        "Id": "LogApp",
        "Name": "Log Application",
        "Description": "Informasi success/error log aplikasi"
      },
      {
        "Features": [],
        "Id": "LogSync",
        "Name": "Log Synchronization",
        "Description": "Informasi success/error log sinkronisasi"
      },
      {
        "Features": [],
        "Id": "MasterConfig",
        "Name": "Master Data Config",
        "Description": "Master Data Config"
      },
      {
        "Features": [],
        "Id": "MasterUser",
        "Name": "Master Data User",
        "Description": "Master Data User"
      },
      {
        "Features": [
          {
            "Id": "Delete",
            "Name": "Delete",
            "Description": "Function to Delete"
          },
          {
            "Id": "DownloadCSV",
            "Name": "Download CSV",
            "Description": "Function to Download CSV"
          },
          {
            "Id": "DownloadOriginal",
            "Name": "Download Original",
            "Description": "Function to Download Original"
          },
          {
            "Id": "DownloadReport",
            "Name": "Download Report",
            "Description": "Function to Download Report"
          },
          {
            "Id": "UploadApprovalStatus",
            "Name": "Upload Approval Status",
            "Description": "Function to Upload Approval Status"
          },
          {
            "Id": "UploadTaxInvoice",
            "Name": "Upload Tax Invoice",
            "Description": "Function to Upload Tax Invoice"
          },
          {
            "Id": "UploadTransitoryStatus",
            "Name": "Upload Transitory Status",
            "Description": "Function to Upload Transitory Status"
          },
          {
            "Id": "UploadTaxInvoicePIB",
            "Name": "Upload Efaktur File PIB",
            "Description": "Function to Upload Efaktur File PIB"
          },
          {
            "Id": "UploadAdjustmentMasaPajak",
            "Name": "Upload Adjustment Masa Pajak",
            "Description": "Function to Upload Adjustment Masa Pajak"
          },
          {
            "Id": "SyncElvisVatin",
            "Name": "Sync Elvis to Vat In",
            "Description": "Function to Sync Elvis to Vat In"
          }
        ],
        "Id": "VATIn",
        "Name": "VAT In Dashboard",
        "Description": "Dashboard untuk VAT In"
      },
      {
        "Features": [
          {
            "Id": "Save",
            "Name": "Save",
            "Description": "Function to Save"
          }
        ],
        "Id": "VATInBarcodeFirstReceiver",
        "Name": "VAT In Barcode First Receiver",
        "Description": "Input VAT In By Scan"
      },
      {
        "Features": [],
        "Id": "VATInBarcodeSecondReceiver",
        "Name": "VAT In Barcode Second Receiver",
        "Description": "View Faktur Detail By Scan"
      },
      {
        "Features": [
          {
            "Id": "Save",
            "Name": "Save",
            "Description": "Function to Save"
          },
          {
            "Id": "SaveAndRepeat",
            "Name": "Save and repeat",
            "Description": "Function to Save and repeat"
          }
        ],
        "Id": "VATInManualInput",
        "Name": "VAT In Manual Input",
        "Description": "Input VAT In Non eFaktur"
      },
      {
        "Features": [
          {
            "Id": "DownloadCSV",
            "Name": "Download CSV",
            "Description": "Function to Download CSV"
          },
          {
            "Id": "DownloadOriginal",
            "Name": "Download Original",
            "Description": "Function to Download Original"
          },
          {
            "Id": "DownloadPDF",
            "Name": "Download PDF",
            "Description": "Function to Download PDF"
          },
          {
            "Id": "DownloadReport",
            "Name": "Download Report",
            "Description": "Function to Download Report"
          },
          {
            "Id": "Print",
            "Name": "Print",
            "Description": "Function to Print"
          },
          {
            "Id": "UploadApprovalStatus",
            "Name": "Upload Approval Status",
            "Description": "Function to Upload Approval Status"
          },
          {
            "Id": "UploadTaxInvoice",
            "Name": "Upload Tax Invoice",
            "Description": "Function to Upload Tax Invoice"
          }
        ],
        "Id": "VATOut",
        "Name": "VAT Out Dashboard",
        "Description": "Dashboard untuk VAT Out"
      },
      {
        "Features": [
          {
            "Id": "DownloadCSV",
            "Name": "Download CSV",
            "Description": "Function to Download CSV"
          },
          {
            "Id": "DownloadOriginal",
            "Name": "Download Original",
            "Description": "Function to Download Original"
          },
          {
            "Id": "DownloadReport",
            "Name": "Download Report",
            "Description": "Function to Download Report"
          },
          {
            "Id": "DownloadPDFOriginal",
            "Name": "Download PDF Original",
            "Description": "Function to Download PDF Original"
          },
          {
            "Id": "DownloadPDFTTD",
            "Name": "Download PDF TTD",
            "Description": "Function to Download PDF TTD"
          },
          {
            "Id": "DownloadPDFDGT",
            "Name": "Download PDF DGT",
            "Description": "Function to Upload Approval Status"
          },
          {
            "Id": "UploadApprovalStatus",
            "Name": "Upload Approval Status",
            "Description": "Function to Upload Approval Status"
          },
          {
            "Id": "UploadTaxInvoice",
            "Name": "Upload Tax Invoice",
            "Description": "Function to Upload Tax Invoice"
          }
        ],
        "Id": "VATOutSalesReturn",
        "Name": "VAT Out Sales Return Dashboard",
        "Description": "Dashboard untuk VAT Out Sales Return"
      },
      {
        "Features": [
          {
            "Id": "PrintPDF",
            "Name": "Print PDF",
            "Description": "Function to Print PDF"
          },
          {
            "Id": "Delete",
            "Name": "Delete",
            "Description": "Function to Delete"
          },
          {
            "Id": "DownloadEbupot",
            "Name": "Download ebupot",
            "Description": "Function to Download eBupot"
          },
          {
            "Id": "DownloadESPT",
            "Name": "Download ESPT",
            "Description": "Function to Download ESPT"
          },
          {
            "Id": "DownloadOriginal",
            "Name": "Download Original",
            "Description": "Function to Download Original"
          },
          {
            "Id": "DownloadPDF",
            "Name": "Download PDF",
            "Description": "Function to Download PDF"
          },
          {
            "Id": "DownloadReport",
            "Name": "Download Report",
            "Description": "Function to Download Report"
          },
          {
            "Id": "UploadApprovalStatus",
            "Name": "Upload Approval Status",
            "Description": "Function to Upload Approval Status"
          },
          {
            "Id": "UploadWHTFile",
            "Name": "Upload Withholding File",
            "Description": "Function to Upload Withholding File"
          },
          {
            "Id": "SyncElvisWHT",
            "Name": "Sync Elvis To Withholding",
            "Description": "Function to Sync Elvis To Withholding"
          },
          {
            "Id": "ConverteBupotFile",
            "Name": "Convert eBupot File",
            "Description": "Function to Convert eBupot File"
          },
          {
            "Id": "UploadeBupotFile",
            "Name": "Upload eBupot File",
            "Description": "Function to Upload eBupot File"
          },
          {
            "Id": "UploadeBupotApproval",
            "Name": "Upload eBupot Approval",
            "Description": "Function to Upload eBupot Approval"
          },
          {
            "Id": "UploadeBupotNIK",
            "Name": "Upload eBupot NIK",
            "Description": "Function to Upload eBupot Approval"
          }
        ],
        "Id": "WHT",
        "Name": "Withholding Dashboard",
        "Description": "Dashboard untuk Withholding"
      },
      {
        "Features": [
          {
            "Id": "DownloadOriginal",
            "Name": "Download Original",
            "Description": "Function to Download Original"
          },
          {
            "Id": "UploadReport",
            "Name": "Upload Report Payment Summary Data",
            "Description": "Function to Upload Report Payment Summary Data"
          }
        ],
        "Id": "TaxReport",
        "Name": "Tax Report",
        "Description": "Dashboard untuk Summary Tax Report"
      },
      {
        "Features": [
          {
            "Id": "PrintFacilityPDF",
            "Name": "Print PDF",
            "Description": "Function to Print PDF"
          },
          {
            "Id": "DeleteTaxFacility",
            "Name": "Delete Tax Facility",
            "Description": "Function to Delete Tax Facility"
          },
          {
            "Id": "DownloadPDF",
            "Name": "Download PDF",
            "Description": "Function to Download PDF"
          },
          {
            "Id": "DownloadReport",
            "Name": "Download Report",
            "Description": "Function to Download Report"
          },
          {
            "Id": "UploadApprovalStatus",
            "Name": "Upload Approval Status",
            "Description": "Function to Upload Approval Status"
          },
          {
            "Id": "UploadTaxFacilityData",
            "Name": "Upload Tax Facility Data",
            "Description": "Function to Upload Tax Facility Data"
          },
          {
            "Id": "UploadPDFFileTaxFacility",
            "Name": "Upload PDF File Tax Facility",
            "Description": "Function to Upload PDF File Tax Facility Data"
          },
          {
            "Id": "InputDataTaxFacility",
            "Name": "Input Data Tax Facility",
            "Description": "Function to Input Data Tax Facility"
          }
        ],
        "Id": "RegisterFacility",
        "Name": "Register Facility Dashboard",
        "Description": "Dashboard untuk Register Facility"
      }
    ],
    "Id": "eFaktur-TAX_HEAD",
    "Name": "Tax Head",
    "Description": "Tax Head"
  },
  {
    "Functions": [
      {
        "Features": [],
        "Id": "LogApp",
        "Name": "Log Application",
        "Description": "Informasi success/error log aplikasi"
      },
      {
        "Features": [],
        "Id": "LogSync",
        "Name": "Log Synchronization",
        "Description": "Informasi success/error log sinkronisasi"
      },
      {
        "Features": [
          {
            "Id": "DownloadOriginal",
            "Name": "Download Original",
            "Description": "Function to Download Original"
          },
          {
            "Id": "DownloadReport",
            "Name": "Download Report",
            "Description": "Function to Download Report"
          }
        ],
        "Id": "VATIn",
        "Name": "VAT In Dashboard",
        "Description": "Dashboard untuk VAT In"
      },
      {
        "Features": [
          {
            "Id": "DownloadOriginal",
            "Name": "Download Original",
            "Description": "Function to Download Original"
          },
          {
            "Id": "DownloadPDF",
            "Name": "Download PDF",
            "Description": "Function to Download PDF"
          },
          {
            "Id": "DownloadReport",
            "Name": "Download Report",
            "Description": "Function to Download Report"
          },
          {
            "Id": "Print",
            "Name": "Print",
            "Description": "Function to Print"
          }
        ],
        "Id": "VATOut",
        "Name": "VAT Out Dashboard",
        "Description": "Dashboard untuk VAT Out"
      },
      {
        "Features": [
          {
            "Id": "DownloadOriginal",
            "Name": "Download Original",
            "Description": "Function to Download Original"
          },
          {
            "Id": "DownloadReport",
            "Name": "Download Report",
            "Description": "Function to Download Report"
          },
          {
            "Id": "DownloadPDFOriginal",
            "Name": "Download PDF Original",
            "Description": "Function to Download PDF Original"
          },
          {
            "Id": "DownloadPDFTTD",
            "Name": "Download PDF TTD",
            "Description": "Function to Download PDF TTD"
          },
          {
            "Id": "DownloadPDFDGT",
            "Name": "Download PDF DGT",
            "Description": "Function to Upload Approval Status"
          }
        ],
        "Id": "VATOutSalesReturn",
        "Name": "VAT Out Sales Return Dashboard",
        "Description": "Dashboard untuk VAT Out Sales Return"
      },
      {
        "Features": [
          {
            "Id": "PrintPDF",
            "Name": "Print PDF",
            "Description": "Function to Print PDF"
          },
          {
            "Id": "DownloadOriginal",
            "Name": "Download Original",
            "Description": "Function to Download Original"
          },
          {
            "Id": "DownloadPDF",
            "Name": "Download PDF",
            "Description": "Function to Download PDF"
          },
          {
            "Id": "DownloadReport",
            "Name": "Download Report",
            "Description": "Function to Download Report"
          }
        ],
        "Id": "WHT",
        "Name": "Withholding Dashboard",
        "Description": "Dashboard untuk Withholding"
      },
      {
        "Features": [
          {
            "Id": "PrintFacilityPDF",
            "Name": "Print PDF",
            "Description": "Function to Print PDF"
          },
          {
            "Id": "DownloadPDF",
            "Name": "Download PDF",
            "Description": "Function to Download PDF"
          },
          {
            "Id": "DownloadReport",
            "Name": "Download Report",
            "Description": "Function to Download Report"
          },
          {
            "Id": "InputDataTaxFacility",
            "Name": "Input Data Tax Facility",
            "Description": "Function to Input Data Tax Facility"
          }
        ],
        "Id": "RegisterFacility",
        "Name": "Register Facility Dashboard",
        "Description": "Dashboard untuk Register Facility"
      }
    ],
    "Id": "eFaktur-FINANCING_HEAD",
    "Name": "Financing Head",
    "Description": "Financing Head"
  },
  {
    "Functions": [
      {
        "Features": [],
        "Id": "LogApp",
        "Name": "Log Application",
        "Description": "Informasi success/error log aplikasi"
      },
      {
        "Features": [],
        "Id": "LogSync",
        "Name": "Log Synchronization",
        "Description": "Informasi success/error log sinkronisasi"
      },
      {
        "Features": [
          {
            "Id": "DownloadOriginal",
            "Name": "Download Original",
            "Description": "Function to Download Original"
          },
          {
            "Id": "DownloadPDF",
            "Name": "Download PDF",
            "Description": "Function to Download PDF"
          },
          {
            "Id": "DownloadReport",
            "Name": "Download Report",
            "Description": "Function to Download Report"
          },
          {
            "Id": "Print",
            "Name": "Print",
            "Description": "Function to Print"
          }
        ],
        "Id": "VATOut",
        "Name": "VAT Out Dashboard",
        "Description": "Dashboard untuk VAT Out"
      },
      {
        "Features": [
          {
            "Id": "DownloadOriginal",
            "Name": "Download Original",
            "Description": "Function to Download Original"
          },
          {
            "Id": "DownloadReport",
            "Name": "Download Report",
            "Description": "Function to Download Report"
          },
          {
            "Id": "DownloadPDFOriginal",
            "Name": "Download PDF Original",
            "Description": "Function to Download PDF Original"
          },
          {
            "Id": "DownloadPDFTTD",
            "Name": "Download PDF TTD",
            "Description": "Function to Download PDF TTD"
          },
          {
            "Id": "DownloadPDFDGT",
            "Name": "Download PDF DGT",
            "Description": "Function to Upload Approval Status"
          }
        ],
        "Id": "VATOutSalesReturn",
        "Name": "VAT Out Sales Return Dashboard",
        "Description": "Dashboard untuk VAT Out Sales Return"
      },
      {
        "Features": [
          {
            "Id": "PrintPDF",
            "Name": "Print PDF",
            "Description": "Function to Print PDF"
          },
          {
            "Id": "DownloadOriginal",
            "Name": "Download Original",
            "Description": "Function to Download Original"
          },
          {
            "Id": "DownloadPDF",
            "Name": "Download PDF",
            "Description": "Function to Download PDF"
          },
          {
            "Id": "DownloadReport",
            "Name": "Download Report",
            "Description": "Function to Download Report"
          }
        ],
        "Id": "WHT",
        "Name": "Withholding Dashboard",
        "Description": "Dashboard untuk Withholding"
      }
    ],
    "Id": "eFaktur-PIC_AR",
    "Name": "PIC AR",
    "Description": "PIC AR"
  },
  {
    "Functions": [
      {
        "Features": [],
        "Id": "LogApp",
        "Name": "Log Application",
        "Description": "Informasi success/error log aplikasi"
      },
      {
        "Features": [],
        "Id": "LogSync",
        "Name": "Log Synchronization",
        "Description": "Informasi success/error log sinkronisasi"
      },
      {
        "Features": [
          {
            "Id": "DownloadOriginal",
            "Name": "Download Original",
            "Description": "Function to Download Original"
          },
          {
            "Id": "DownloadReport",
            "Name": "Download Report",
            "Description": "Function to Download Report"
          }
        ],
        "Id": "VATIn",
        "Name": "VAT In Dashboard",
        "Description": "Dashboard untuk VAT In"
      },
      {
        "Features": [
          {
            "Id": "Save",
            "Name": "Save",
            "Description": "Function to Save"
          }
        ],
        "Id": "VATInBarcodeFirstReceiver",
        "Name": "VAT In Barcode First Receiver",
        "Description": "Input VAT In By Scan"
      },
      {
        "Features": [],
        "Id": "VATInBarcodeSecondReceiver",
        "Name": "VAT In Barcode Second Receiver",
        "Description": "View Faktur Detail By Scan"
      },
      {
        "Features": [
          {
            "Id": "Save",
            "Name": "Save",
            "Description": "Function to Save"
          },
          {
            "Id": "SaveAndRepeat",
            "Name": "Save and repeat",
            "Description": "Function to Save and repeat"
          }
        ],
        "Id": "VATInManualInput",
        "Name": "VAT In Manual Input",
        "Description": "Input VAT In Non eFaktur"
      },
      {
        "Features": [
          {
            "Id": "PrintPDF",
            "Name": "Print PDF",
            "Description": "Function to Print PDF"
          },
          {
            "Id": "DownloadOriginal",
            "Name": "Download Original",
            "Description": "Function to Download Original"
          },
          {
            "Id": "DownloadPDF",
            "Name": "Download PDF",
            "Description": "Function to Download PDF"
          },
          {
            "Id": "DownloadReport",
            "Name": "Download Report",
            "Description": "Function to Download Report"
          }
        ],
        "Id": "WHT",
        "Name": "Withholding Dashboard",
        "Description": "Dashboard untuk Withholding"
      },
      {
        "Features": [
          {
            "Id": "PrintFacilityPDF",
            "Name": "Print PDF",
            "Description": "Function to Print PDF"
          },
          {
            "Id": "DownloadPDF",
            "Name": "Download PDF",
            "Description": "Function to Download PDF"
          },
          {
            "Id": "DownloadReport",
            "Name": "Download Report",
            "Description": "Function to Download Report"
          },
          {
            "Id": "InputDataTaxFacility",
            "Name": "Input Data Tax Facility",
            "Description": "Function to Input Data Tax Facility"
          }
        ],
        "Id": "RegisterFacility",
        "Name": "Register Facility Dashboard",
        "Description": "Dashboard untuk Register Facility"
      }
    ],
    "Id": "eFaktur-PIC_AP",
    "Name": "PIC AP",
    "Description": "PIC AP"
  },
  {
    "Functions": [
      {
        "Features": [],
        "Id": "LogApp",
        "Name": "Log Application",
        "Description": "Informasi success/error log aplikasi"
      },
      {
        "Features": [],
        "Id": "LogSync",
        "Name": "Log Synchronization",
        "Description": "Informasi success/error log sinkronisasi"
      },
      {
        "Features": [],
        "Id": "MasterConfig",
        "Name": "Master Data Config",
        "Description": "Master Data Config"
      },
      {
        "Features": [],
        "Id": "MasterUser",
        "Name": "Master Data User",
        "Description": "Master Data User"
      },
      {
        "Features": [
          {
            "Id": "Delete",
            "Name": "Delete",
            "Description": "Function to Delete"
          },
          {
            "Id": "DownloadCSV",
            "Name": "Download CSV",
            "Description": "Function to Download CSV"
          },
          {
            "Id": "DownloadOriginal",
            "Name": "Download Original",
            "Description": "Function to Download Original"
          },
          {
            "Id": "DownloadReport",
            "Name": "Download Report",
            "Description": "Function to Download Report"
          },
          {
            "Id": "UploadApprovalStatus",
            "Name": "Upload Approval Status",
            "Description": "Function to Upload Approval Status"
          },
          {
            "Id": "UploadTaxInvoice",
            "Name": "Upload Tax Invoice",
            "Description": "Function to Upload Tax Invoice"
          },
          {
            "Id": "UploadTransitoryStatus",
            "Name": "Upload Transitory Status",
            "Description": "Function to Upload Transitory Status"
          },
          {
            "Id": "UploadTaxInvoicePIB",
            "Name": "Upload Efaktur File PIB",
            "Description": "Function to Upload Efaktur File PIB"
          },
          {
            "Id": "UploadAdjustmentMasaPajak",
            "Name": "Upload Adjustment Masa Pajak",
            "Description": "Function to Upload Adjustment Masa Pajak"
          },
          {
            "Id": "SyncElvisVatin",
            "Name": "Sync Elvis to Vat In",
            "Description": "Function to Sync Elvis to Vat In"
          }
        ],
        "Id": "VATIn",
        "Name": "VAT In Dashboard",
        "Description": "Dashboard untuk VAT In"
      },
      {
        "Features": [
          {
            "Id": "Save",
            "Name": "Save",
            "Description": "Function to Save"
          }
        ],
        "Id": "VATInBarcodeFirstReceiver",
        "Name": "VAT In Barcode First Receiver",
        "Description": "Input VAT In By Scan"
      },
      {
        "Features": [],
        "Id": "VATInBarcodeSecondReceiver",
        "Name": "VAT In Barcode Second Receiver",
        "Description": "View Faktur Detail By Scan"
      },
      {
        "Features": [
          {
            "Id": "Save",
            "Name": "Save",
            "Description": "Function to Save"
          },
          {
            "Id": "SaveAndRepeat",
            "Name": "Save and repeat",
            "Description": "Function to Save and repeat"
          }
        ],
        "Id": "VATInManualInput",
        "Name": "VAT In Manual Input",
        "Description": "Input VAT In Non eFaktur"
      },
      {
        "Features": [
          {
            "Id": "DownloadCSV",
            "Name": "Download CSV",
            "Description": "Function to Download CSV"
          },
          {
            "Id": "DownloadOriginal",
            "Name": "Download Original",
            "Description": "Function to Download Original"
          },
          {
            "Id": "DownloadPDF",
            "Name": "Download PDF",
            "Description": "Function to Download PDF"
          },
          {
            "Id": "DownloadReport",
            "Name": "Download Report",
            "Description": "Function to Download Report"
          },
          {
            "Id": "Print",
            "Name": "Print",
            "Description": "Function to Print"
          },
          {
            "Id": "UploadApprovalStatus",
            "Name": "Upload Approval Status",
            "Description": "Function to Upload Approval Status"
          },
          {
            "Id": "UploadTaxInvoice",
            "Name": "Upload Tax Invoice",
            "Description": "Function to Upload Tax Invoice"
          }
        ],
        "Id": "VATOut",
        "Name": "VAT Out Dashboard",
        "Description": "Dashboard untuk VAT Out"
      },
      {
        "Features": [
          {
            "Id": "DownloadCSV",
            "Name": "Download CSV",
            "Description": "Function to Download CSV"
          },
          {
            "Id": "DownloadOriginal",
            "Name": "Download Original",
            "Description": "Function to Download Original"
          },
          {
            "Id": "DownloadReport",
            "Name": "Download Report",
            "Description": "Function to Download Report"
          },
          {
            "Id": "DownloadPDFOriginal",
            "Name": "Download PDF Original",
            "Description": "Function to Download PDF Original"
          },
          {
            "Id": "DownloadPDFTTD",
            "Name": "Download PDF TTD",
            "Description": "Function to Download PDF TTD"
          },
          {
            "Id": "DownloadPDFDGT",
            "Name": "Download PDF DGT",
            "Description": "Function to Upload Approval Status"
          },
          {
            "Id": "UploadApprovalStatus",
            "Name": "Upload Approval Status",
            "Description": "Function to Upload Approval Status"
          },
          {
            "Id": "TaxinvoiceDataLexus",
            "Name": "Upload Tax Invoice Data Lexus",
            "Description": "Function to Upload Approval Status"
          },
          {
            "Id": "UploadTaxInvoice",
            "Name": "Upload Tax Invoice",
            "Description": "Function to Upload Tax Invoice"
          },
          {
            "Id": "PdfOriginal",
            "Name": "Print Pdf Original",
            "Description": "Function to Upload Tax Invoice"
          },
          {
            "Id": "PdfSignOff",
            "Name": "Print Pdf SignOff",
            "Description": "Function to Upload Tax Invoice"
          },
          {
            "Id": "PdfDgt",
            "Name": "Print Pdf Dgt",
            "Description": "Function to Upload Tax Invoice"
          }
        ],
        "Id": "VATOutSalesReturn",
        "Name": "VAT Out Sales Return Dashboard",
        "Description": "Dashboard untuk VAT Out Sales Return"
      },
      {
        "Features": [
          {
            "Id": "PrintPDF",
            "Name": "Print PDF",
            "Description": "Function to Print PDF"
          },
          {
            "Id": "Delete",
            "Name": "Delete",
            "Description": "Function to Delete"
          },
          {
            "Id": "DownloadESPT",
            "Name": "Download ESPT",
            "Description": "Function to Download ESPT"
          },
          {
            "Id": "DownloadEbupot",
            "Name": "Download ebupot",
            "Description": "Function to Download eBupot"
          },
          {
            "Id": "DownloadOriginal",
            "Name": "Download Original",
            "Description": "Function to Download Original"
          },
          {
            "Id": "DownloadPDF",
            "Name": "Download PDF",
            "Description": "Function to Download PDF"
          },
          {
            "Id": "DownloadReport",
            "Name": "Download Report",
            "Description": "Function to Download Report"
          },
          {
            "Id": "UploadApprovalStatus",
            "Name": "Upload Approval Status",
            "Description": "Function to Upload Approval Status"
          },
          {
            "Id": "UploadWHTFile",
            "Name": "Upload Withholding File",
            "Description": "Function to Upload Withholding File"
          },
          {
            "Id": "SyncElvisWHT",
            "Name": "Sync Elvis To Withholding",
            "Description": "Function to Sync Elvis To Withholding"
          },
          {
            "Id": "ConverteBupotFile",
            "Name": "Convert eBupot File",
            "Description": "Function to Convert eBupot File"
          },
          {
            "Id": "UploadeBupotFile",
            "Name": "Upload eBupot File",
            "Description": "Function to Upload eBupot File"
          },
          {
            "Id": "UploadeBupotApproval",
            "Name": "Upload eBupot Approval",
            "Description": "Function to Upload eBupot Approval"
          },
          {
            "Id": "UploadeBupotNIK",
            "Name": "Upload eBupot NIK",
            "Description": "Function to Upload eBupot Approval"
          }
        ],
        "Id": "WHT",
        "Name": "Withholding Dashboard",
        "Description": "Dashboard untuk Withholding"
      },
      {
        "Features": [
          {
            "Id": "DownloadOriginal",
            "Name": "Download Original",
            "Description": "Function to Download Original"
          },
          {
            "Id": "UploadReport",
            "Name": "Upload Report Payment Summary Data",
            "Description": "Function to Upload Report Payment Summary Data"
          }
        ],
        "Id": "TaxReport",
        "Name": "Tax Report",
        "Description": "Dashboard untuk Summary Tax Report"
      },
      {
        "Features": [
          {
            "Id": "PrintFacilityPDF",
            "Name": "Print PDF",
            "Description": "Function to Print PDF"
          },
          {
            "Id": "DeleteTaxFacility",
            "Name": "Delete Tax Facility",
            "Description": "Function to Delete Tax Facility"
          },
          {
            "Id": "DownloadPDF",
            "Name": "Download PDF",
            "Description": "Function to Download PDF"
          },
          {
            "Id": "DownloadReport",
            "Name": "Download Report",
            "Description": "Function to Download Report"
          },
          {
            "Id": "UploadApprovalStatus",
            "Name": "Upload Approval Status",
            "Description": "Function to Upload Approval Status"
          },
          {
            "Id": "UploadTaxFacilityData",
            "Name": "Upload Tax Facility Data",
            "Description": "Function to Upload Tax Facility Data"
          },
          {
            "Id": "UploadPDFFileTaxFacility",
            "Name": "Upload PDF File Tax Facility",
            "Description": "Function to Upload PDF File Tax Facility Data"
          },
          {
            "Id": "InputDataTaxFacility",
            "Name": "Input Data Tax Facility",
            "Description": "Function to Input Data Tax Facility"
          }
        ],
        "Id": "RegisterFacility",
        "Name": "Register Facility Dashboard",
        "Description": "Dashboard untuk Register Facility"
      }
    ],
    "Id": "eFaktur-EFAKTUR_SUPER_ADMIN",
    "Name": "eFaktur Super Admin",
    "Description": "eFaktur Super Admin"
  },
  {
    "Functions": [
      {
        "Features": [],
        "Id": "LogApp",
        "Name": "Log Application",
        "Description": "Informasi success/error log aplikasi"
      },
      {
        "Features": [],
        "Id": "LogSync",
        "Name": "Log Synchronization",
        "Description": "Informasi success/error log sinkronisasi"
      },
      {
        "Features": [
          {
            "Id": "DownloadReport",
            "Name": "Download Report",
            "Description": "Function to Download Report"
          }
        ],
        "Id": "VATIn",
        "Name": "VAT In Dashboard",
        "Description": "Dashboard untuk VAT In"
      },
      {
        "Features": [
          {
            "Id": "Save",
            "Name": "Save",
            "Description": "Function to Save"
          }
        ],
        "Id": "VATInBarcodeFirstReceiver",
        "Name": "VAT In Barcode First Receiver",
        "Description": "Input VAT In By Scan"
      },
      {
        "Features": [],
        "Id": "VATInBarcodeSecondReceiver",
        "Name": "VAT In Barcode Second Receiver",
        "Description": "View Faktur Detail By Scan"
      },
      {
        "Features": [
          {
            "Id": "Save",
            "Name": "Save",
            "Description": "Function to Save"
          },
          {
            "Id": "SaveAndRepeat",
            "Name": "Save and repeat",
            "Description": "Function to Save and repeat"
          }
        ],
        "Id": "VATInManualInput",
        "Name": "VAT In Manual Input",
        "Description": "Input VAT In Non eFaktur"
      },
      {
        "Features": [
          {
            "Id": "PrintPDF",
            "Name": "Print PDF",
            "Description": "Function to Print PDF"
          },
          {
            "Id": "DownloadPDF",
            "Name": "Download PDF",
            "Description": "Function to Download PDF"
          },
          {
            "Id": "DownloadEbupot",
            "Name": "Download ebupot",
            "Description": "Function to Download eBupot"
          },
          {
            "Id": "DownloadEbupot",
            "Name": "Download ebupot",
            "Description": "Function to Download eBupot"
          },
          {
            "Id": "DownloadReport",
            "Name": "Download Report",
            "Description": "Function to Download Report"
          }
        ],
        "Id": "WHT",
        "Name": "Withholding Dashboard",
        "Description": "Dashboard untuk Withholding"
      },
      {
        "Features": [
          {
            "Id": "PrintFacilityPDF",
            "Name": "Print PDF",
            "Description": "Function to Print PDF"
          },
          {
            "Id": "DownloadPDF",
            "Name": "Download PDF",
            "Description": "Function to Download PDF"
          },
          {
            "Id": "DownloadReport",
            "Name": "Download Report",
            "Description": "Function to Download Report"
          },
          {
            "Id": "InputDataTaxFacility",
            "Name": "Input Data Tax Facility",
            "Description": "Function to Input Data Tax Facility"
          }
        ],
        "Id": "RegisterFacility",
        "Name": "Register Facility Dashboard",
        "Description": "Dashboard untuk Register Facility"
      }
    ],
    "Id": "eFaktur-USER_ADMIN_DIVISION",
    "Name": "User Admin Division",
    "Description": "User Admin yang bertanggung jawab atas Division"
  },
  {
    "Functions": [
      {
        "Features": [],
        "Id": "LogApp",
        "Name": "Log Application",
        "Description": "Informasi success/error log aplikasi"
      },
      {
        "Features": [],
        "Id": "LogSync",
        "Name": "Log Synchronization",
        "Description": "Informasi success/error log sinkronisasi"
      },
      {
        "Features": [],
        "Id": "MasterConfig",
        "Name": "Master Data Config",
        "Description": "Master Data Config"
      },
      {
        "Features": [],
        "Id": "MasterUser",
        "Name": "Master Data User",
        "Description": "Master Data User"
      },
      {
        "Features": [
          {
            "Id": "DownloadReport",
            "Name": "Download Report",
            "Description": "Function to Download Report"
          }
        ],
        "Id": "VATIn",
        "Name": "VAT In Dashboard",
        "Description": "Dashboard untuk VAT In"
      },
      {
        "Features": [
          {
            "Id": "DownloadReport",
            "Name": "Download Report",
            "Description": "Function to Download Report"
          }
        ],
        "Id": "WHT",
        "Name": "Withholding Dashboard",
        "Description": "Dashboard untuk Withholding"
      },
      {
        "Features": [],
        "Id": "TaxReport",
        "Name": "Tax Report",
        "Description": "Dashboard untuk Summary Tax Report"
      },
      {
        "Features": [
          {
            "Id": "DownloadReport",
            "Name": "Download Report",
            "Description": "Function to Download Report"
          },
          {
            "Id": "DownloadPDFOriginal",
            "Name": "Download PDF Original",
            "Description": "Function to Download PDF Original"
          },
          {
            "Id": "DownloadPDFTTD",
            "Name": "Download PDF TTD",
            "Description": "Function to Download PDF TTD"
          },
          {
            "Id": "DownloadPDFDGT",
            "Name": "Download PDF DGT",
            "Description": "Function to Upload Approval Status"
          }
        ],
        "Id": "VATOutSalesReturn",
        "Name": "VAT Out Sales Return Dashboard",
        "Description": "Dashboard untuk VAT Out Sales Return"
      },
      {
        "Features": [
          {
            "Id": "DownloadReport",
            "Name": "Download Report",
            "Description": "Function to Download Report"
          }
        ],
        "Id": "VATOut",
        "Name": "VAT Out Dashboard",
        "Description": "Dashboard untuk VAT Out"
      }
    ],
    "Id": "eFaktur-PIC_TAX_VISUALIZATION_MS_STRATEGY",
    "Name": "User Dashboard MS Strategy",
    "Description": "User untuk melihat semua data Dashboard"
  },
  {
    "Functions": [
      {
        "Features": [
          {
            "Id": "PrintFacilityPDF",
            "Name": "Print PDF",
            "Description": "Function to Print PDF"
          },
          {
            "Id": "DeleteTaxFacility",
            "Name": "Delete Tax Facility",
            "Description": "Function to Delete Tax Facility"
          },
          {
            "Id": "DownloadPDF",
            "Name": "Download PDF",
            "Description": "Function to Download PDF"
          },
          {
            "Id": "DownloadReport",
            "Name": "Download Report",
            "Description": "Function to Download Report"
          },
          {
            "Id": "UploadApprovalStatus",
            "Name": "Upload Approval Status",
            "Description": "Function to Upload Approval Status"
          },
          {
            "Id": "UploadTaxFacilityData",
            "Name": "Upload Tax Facility Data",
            "Description": "Function to Upload Tax Facility Data"
          },
          {
            "Id": "UploadPDFFileTaxFacility",
            "Name": "Upload PDF File Tax Facility",
            "Description": "Function to Upload PDF File Tax Facility Data"
          },
          {
            "Id": "InputDataTaxFacility",
            "Name": "Input Data Tax Facility",
            "Description": "Function to Input Data Tax Facility"
          }
        ],
        "Id": "RegisterFacility",
        "Name": "Register Facility Dashboard",
        "Description": "Dashboard untuk Register Facility"
      }
    ],
    "Id": "eFaktur-PIC_REGISTER_TAX_FACILITY",
    "Name": "Register Facility Dashboard",
    "Description": "Dashboard untuk Register Facility"
  }
]